<svg width="72" height="71" viewBox="0 0 72 71" fill="none" xmlns="http://www.w3.org/2000/svg">
<circle cx="67.0915" cy="56.5834" r="40.4167" fill="#E5BD5C"/>
<path d="M30.7163 27.0791C30.7163 30.8738 27.6401 33.95 23.8454 33.95C20.0508 33.95 16.9746 30.8738 16.9746 27.0791C16.9746 23.2845 20.0508 20.2083 23.8454 20.2083C27.6401 20.2083 30.7163 23.2845 30.7163 27.0791ZM18.9916 27.0791C18.9916 29.7599 21.1647 31.933 23.8454 31.933C26.5262 31.933 28.6993 29.7599 28.6993 27.0791C28.6993 24.3984 26.5262 22.2253 23.8454 22.2253C21.1647 22.2253 18.9916 24.3984 18.9916 27.0791Z" fill="#6D92C8"/>
<path d="M64.6665 6.87083C64.6665 10.6655 61.5903 13.7417 57.7956 13.7417C54.001 13.7417 50.9248 10.6655 50.9248 6.87083C50.9248 3.07618 54.001 0 57.7956 0C61.5903 0 64.6665 3.07618 64.6665 6.87083ZM52.9418 6.87083C52.9418 9.55154 55.1149 11.7247 57.7956 11.7247C60.4763 11.7247 62.6495 9.55154 62.6495 6.87083C62.6495 4.19012 60.4763 2.01698 57.7956 2.01698C55.1149 2.01698 52.9418 4.19012 52.9418 6.87083Z" fill="#6D92C8"/>
<path d="M21.825 74.7708C21.825 80.7976 16.9393 85.6833 10.9125 85.6833C4.88569 85.6833 0 80.7976 0 74.7708C0 68.744 4.88569 63.8583 10.9125 63.8583C16.9393 63.8583 21.825 68.744 21.825 74.7708ZM3.20343 74.7708C3.20343 79.0284 6.6549 82.4799 10.9125 82.4799C15.1701 82.4799 18.6216 79.0284 18.6216 74.7708C18.6216 70.5132 15.1701 67.0618 10.9125 67.0618C6.6549 67.0618 3.20343 70.5132 3.20343 74.7708Z" fill="#CF9600"/>
</svg>
